Arguments: 
Namespace(batch_size=32, char_cnn_filter_lengths=[1, 2, 3, 5, 7, 9], char_cnn_filters=[50, 50, 50, 50, 50], char_embeddings_dim=2, dataset_root='/Users/theses/Developer/sts-experiments/experiments/../data/semeval-sts/all', disable_progress_bar=False, embeddings_dim=300, epochs_max=20, epochs_patience_valid=5, glove_embeddings=None, hash_embeddings_dim=2000, lemmatize=False, lower_case=True, name='cnn', number_of_oov=1, patience_metric='cost', remove_lookup=False, remove_stopwords=True, stem=True, test_files=['2015.test.tsv'], train=['2015.train.tsv'], type_oov='cnn', use_tokenizer=True, valid='2015.val.tsv', vocab_len=-1, w2v_embeddings=None)
Running on Peters-MBP
STATISTICS /Users/theses/Developer/sts-experiments/experiments/../data/semeval-sts/all/2015.train.tsv
Total words: 39771
Total distinct words: 5247
STATISTICS /Users/theses/Developer/sts-experiments/experiments/../data/semeval-sts/all/2015.train.tsv
Total words: 39771
Total distinct words: 5247
0 OOV in /Users/theses/Developer/sts-experiments/experiments/../data/semeval-sts/all/2015.train.tsv
STATISTICS /Users/theses/Developer/sts-experiments/experiments/../data/semeval-sts/all/2015.val.tsv
Total words: 13514
Total distinct words: 3049
1422 OOV in /Users/theses/Developer/sts-experiments/experiments/../data/semeval-sts/all/2015.val.tsv
