
 2015-07-09 13:14:48.992083 
{"iterations_done": 0, "resumed_from": null, "epoch_interrupt_received": false, "received_first_batch": false, "epochs_done": 0, "training_started": true, "batch_interrupt_received": false, "epoch_started": true} 
{"images_corr": 0.749944806098938, "images_baseline_corr": 0.7377091646194458, "headlines_baseline_corr": 0.7128641605377197, "valid_cost": 2.3049333095550537, "headlines_corr": 0.678572416305542, "belief_baseline_corr": 0.6667959094047546, "time_initialization": 7.679240942001343, "answers-students_corr": 0.6737914681434631, "answers-forums_corr": 0.5214883089065552, "answers-forums_baseline_corr": 0.5827670693397522, "valid_corr": 0.5882174968719482, "belief_corr": 0.5925794839859009, "answers-students_baseline_corr": 0.7252631783485413} 
{"iterations_done": 98, "resumed_from": null, "epoch_interrupt_received": false, "received_first_batch": true, "epochs_done": 1, "epoch_started": false, "training_started": true, "batch_interrupt_received": false, "best_valid_cost": 0.1779497116804123} 
{"images_corr": 0.7256314754486084, "images_baseline_corr": 0.7377091646194458, "headlines_baseline_corr": 0.7128641605377197, "time_train_this_epoch": 44.437880516052246, "valid_cost": 0.1779497116804123, "time_train_total": 44.437880516052246, "valid_corr": 0.6380458474159241, "valid_cost_best_so_far_patience_epochs": 10, "time_read_data_total": 1.5655772686004639, "headlines_corr": 0.5914250016212463, "time_read_data_this_epoch": 1.5655772686004639, "belief_baseline_corr": 0.6667959094047546, "answers-students_corr": 0.549541175365448, "cost": 0.3523705005645752, "answers-forums_corr": 0.3122704029083252, "answers-forums_baseline_corr": 0.5827670693397522, "train_corr": 0.6758855581283569, "belief_corr": 0.4512506127357483, "valid_cost_best_so_far": true, "answers-students_baseline_corr": 0.7252631783485413} 

 2015-07-09 14:11:20.747445 
{"iterations_done": 0, "resumed_from": null, "epoch_interrupt_received": false, "received_first_batch": false, "epochs_done": 0, "training_started": true, "batch_interrupt_received": false, "epoch_started": true} 
{"images_corr": 0.75375896692276, "images_baseline_corr": 0.7377091646194458, "headlines_baseline_corr": 0.7128641605377197, "valid_cost": 2.366792678833008, "headlines_corr": 0.6748293042182922, "belief_baseline_corr": 0.6667959094047546, "time_initialization": 3.8455331325531006, "answers-students_corr": 0.6706767678260803, "answers-forums_corr": 0.5231419205665588, "answers-forums_baseline_corr": 0.5827670693397522, "valid_corr": 0.40984782576560974, "belief_corr": 0.5899463295936584, "answers-students_baseline_corr": 0.7252631783485413} 
{"iterations_done": 28, "resumed_from": null, "epoch_interrupt_received": false, "received_first_batch": true, "epochs_done": 1, "epoch_started": false, "training_started": true, "batch_interrupt_received": false, "best_valid_cost": 0.37313970923423767} 
{"images_corr": 0.7228100299835205, "images_baseline_corr": 0.7377091646194458, "headlines_baseline_corr": 0.7128641605377197, "time_train_this_epoch": 12.787753105163574, "valid_cost": 0.37313970923423767, "time_train_total": 12.787753105163574, "valid_corr": 0.43602073192596436, "valid_cost_best_so_far_patience_epochs": 10, "time_read_data_total": 1.4679930210113525, "headlines_corr": 0.5945097804069519, "time_read_data_this_epoch": 1.4679930210113525, "belief_baseline_corr": 0.6667959094047546, "answers-students_corr": 0.5452664494514465, "cost": 0.7776109576225281, "answers-forums_corr": 0.36425721645355225, "answers-forums_baseline_corr": 0.5827670693397522, "train_corr": 0.6655935049057007, "belief_corr": 0.5005687475204468, "valid_cost_best_so_far": true, "answers-students_baseline_corr": 0.7252631783485413} 
{"iterations_done": 56, "resumed_from": null, "epoch_interrupt_received": false, "received_first_batch": true, "epochs_done": 2, "epoch_started": false, "training_started": true, "batch_interrupt_received": false, "best_valid_cost": 0.267286092042923} 
{"images_corr": 0.709570050239563, "images_baseline_corr": 0.7377091646194458, "headlines_baseline_corr": 0.7128641605377197, "time_train_this_epoch": 12.914010524749756, "valid_cost": 0.267286092042923, "time_train_total": 25.70176362991333, "valid_corr": 0.4405938386917114, "valid_cost_best_so_far_patience_epochs": 10, "time_read_data_total": 2.9604902267456055, "headlines_corr": 0.5998584032058716, "time_read_data_this_epoch": 1.492497205734253, "belief_baseline_corr": 0.6667959094047546, "answers-students_corr": 0.5526526570320129, "cost": 0.2576904892921448, "answers-forums_corr": 0.3706837296485901, "answers-forums_baseline_corr": 0.5827670693397522, "train_corr": 0.7041239142417908, "belief_corr": 0.48825493454933167, "valid_cost_best_so_far": true, "answers-students_baseline_corr": 0.7252631783485413} 
{"iterations_done": 84, "resumed_from": null, "epoch_interrupt_received": false, "received_first_batch": true, "epochs_done": 3, "epoch_started": false, "training_started": true, "batch_interrupt_received": false, "best_valid_cost": 0.2387823909521103} 
{"images_corr": 0.7126586437225342, "images_baseline_corr": 0.7377091646194458, "headlines_baseline_corr": 0.7128641605377197, "time_train_this_epoch": 12.607542753219604, "valid_cost": 0.2387823909521103, "time_train_total": 38.309306383132935, "valid_corr": 0.448426216840744, "valid_cost_best_so_far_patience_epochs": 10, "time_read_data_total": 4.384418725967407, "headlines_corr": 0.598731517791748, "time_read_data_this_epoch": 1.4239284992218018, "belief_baseline_corr": 0.6667959094047546, "answers-students_corr": 0.5443106293678284, "cost": 0.19221341609954834, "answers-forums_corr": 0.3625245690345764, "answers-forums_baseline_corr": 0.5827670693397522, "train_corr": 0.7336583137512207, "belief_corr": 0.5078152418136597, "valid_cost_best_so_far": true, "answers-students_baseline_corr": 0.7252631783485413} 
{"iterations_done": 112, "resumed_from": null, "epoch_interrupt_received": false, "received_first_batch": true, "epochs_done": 4, "epoch_started": false, "training_started": true, "batch_interrupt_received": false, "best_valid_cost": 0.2244911938905716} 
{"images_corr": 0.7162230610847473, "images_baseline_corr": 0.7377091646194458, "headlines_baseline_corr": 0.7128641605377197, "time_train_this_epoch": 12.12520456314087, "valid_cost": 0.2244911938905716, "time_train_total": 50.434510946273804, "valid_corr": 0.450377494096756, "valid_cost_best_so_far_patience_epochs": 10, "time_read_data_total": 5.775591850280762, "headlines_corr": 0.6088178157806396, "time_read_data_this_epoch": 1.3911731243133545, "belief_baseline_corr": 0.6667959094047546, "answers-students_corr": 0.5574970841407776, "cost": 0.1669849306344986, "answers-forums_corr": 0.3759167790412903, "answers-forums_baseline_corr": 0.5827670693397522, "train_corr": 0.7545338273048401, "belief_corr": 0.5299723148345947, "valid_cost_best_so_far": true, "answers-students_baseline_corr": 0.7252631783485413} 
{"iterations_done": 140, "resumed_from": null, "epoch_interrupt_received": false, "received_first_batch": true, "epochs_done": 5, "epoch_started": false, "training_started": true, "batch_interrupt_received": false, "best_valid_cost": 0.21468104422092438} 
{"images_corr": 0.7125126123428345, "images_baseline_corr": 0.7377091646194458, "headlines_baseline_corr": 0.7128641605377197, "time_train_this_epoch": 12.897256135940552, "valid_cost": 0.21468104422092438, "time_train_total": 63.331767082214355, "valid_corr": 0.46207213401794434, "valid_cost_best_so_far_patience_epochs": 10, "time_read_data_total": 7.2760326862335205, "headlines_corr": 0.6130772233009338, "time_read_data_this_epoch": 1.5004408359527588, "belief_baseline_corr": 0.6667959094047546, "answers-students_corr": 0.5760577917098999, "cost": 0.15180757641792297, "answers-forums_corr": 0.3769419193267822, "answers-forums_baseline_corr": 0.5827670693397522, "train_corr": 0.7725158929824829, "belief_corr": 0.5178298950195312, "valid_cost_best_so_far": true, "answers-students_baseline_corr": 0.7252631783485413} 
{"iterations_done": 168, "resumed_from": null, "epoch_interrupt_received": false, "received_first_batch": true, "epochs_done": 6, "epoch_started": false, "training_started": true, "batch_interrupt_received": false, "best_valid_cost": 0.2090635746717453} 
{"images_corr": 0.7242488861083984, "images_baseline_corr": 0.7377091646194458, "headlines_baseline_corr": 0.7128641605377197, "time_train_this_epoch": 12.701847314834595, "valid_cost": 0.2090635746717453, "time_train_total": 76.03361439704895, "valid_corr": 0.4594091475009918, "valid_cost_best_so_far_patience_epochs": 10, "time_read_data_total": 8.721972465515137, "headlines_corr": 0.6184340715408325, "time_read_data_this_epoch": 1.4459397792816162, "belief_baseline_corr": 0.6667959094047546, "answers-students_corr": 0.5696889162063599, "cost": 0.14113034307956696, "answers-forums_corr": 0.36673417687416077, "answers-forums_baseline_corr": 0.5827670693397522, "train_corr": 0.7866252660751343, "belief_corr": 0.5318111777305603, "valid_cost_best_so_far": true, "answers-students_baseline_corr": 0.7252631783485413} 
{"iterations_done": 196, "resumed_from": null, "epoch_interrupt_received": false, "received_first_batch": true, "epochs_done": 7, "epoch_started": false, "training_started": true, "batch_interrupt_received": false, "best_valid_cost": 0.20335273444652557} 
{"images_corr": 0.7257864475250244, "images_baseline_corr": 0.7377091646194458, "headlines_baseline_corr": 0.7128641605377197, "time_train_this_epoch": 12.63674259185791, "valid_cost": 0.20335273444652557, "time_train_total": 88.67035698890686, "valid_corr": 0.4661829471588135, "valid_cost_best_so_far_patience_epochs": 10, "time_read_data_total": 10.159111022949219, "headlines_corr": 0.6175390481948853, "time_read_data_this_epoch": 1.437138557434082, "belief_baseline_corr": 0.6667959094047546, "answers-students_corr": 0.5559059381484985, "cost": 0.13199865818023682, "answers-forums_corr": 0.38374063372612, "answers-forums_baseline_corr": 0.5827670693397522, "train_corr": 0.7976899743080139, "belief_corr": 0.5404902100563049, "valid_cost_best_so_far": true, "answers-students_baseline_corr": 0.7252631783485413} 
{"iterations_done": 224, "resumed_from": null, "epoch_interrupt_received": false, "received_first_batch": true, "epochs_done": 8, "epoch_started": false, "training_started": true, "batch_interrupt_received": false, "best_valid_cost": 0.19762928783893585} 
{"images_corr": 0.7191687822341919, "images_baseline_corr": 0.7377091646194458, "headlines_baseline_corr": 0.7128641605377197, "time_train_this_epoch": 12.417757749557495, "valid_cost": 0.19762928783893585, "time_train_total": 101.08811473846436, "valid_corr": 0.47547242045402527, "valid_cost_best_so_far_patience_epochs": 10, "time_read_data_total": 11.57917046546936, "headlines_corr": 0.6213148236274719, "time_read_data_this_epoch": 1.4200594425201416, "belief_baseline_corr": 0.6667959094047546, "answers-students_corr": 0.5738376975059509, "cost": 0.12445850670337677, "answers-forums_corr": 0.3713648021221161, "answers-forums_baseline_corr": 0.5827670693397522, "train_corr": 0.8123293519020081, "belief_corr": 0.5490118265151978, "valid_cost_best_so_far": true, "answers-students_baseline_corr": 0.7252631783485413} 
{"iterations_done": 252, "resumed_from": null, "epoch_interrupt_received": true, "received_first_batch": true, "epochs_done": 9, "epoch_started": false, "training_started": true, "batch_interrupt_received": false, "best_valid_cost": 0.1934679001569748} 
{"images_corr": 0.7173328995704651, "images_baseline_corr": 0.7377091646194458, "headlines_baseline_corr": 0.7128641605377197, "time_train_this_epoch": 12.742827415466309, "valid_cost": 0.1934679001569748, "time_train_total": 113.83094215393066, "valid_corr": 0.4760056734085083, "valid_cost_best_so_far_patience_epochs": 10, "time_read_data_total": 13.022907972335815, "headlines_corr": 0.6250674724578857, "time_read_data_this_epoch": 1.443737506866455, "belief_baseline_corr": 0.6667959094047546, "answers-students_corr": 0.5810787081718445, "cost": 0.11871254444122314, "answers-forums_corr": 0.37313252687454224, "answers-forums_baseline_corr": 0.5827670693397522, "train_corr": 0.8224438428878784, "belief_corr": 0.5479462742805481, "valid_cost_best_so_far": true, "answers-students_baseline_corr": 0.7252631783485413} 
{"iterations_done": 252, "resumed_from": null, "epoch_interrupt_received": true, "received_first_batch": true, "epochs_done": 9, "epoch_started": false, "training_started": true, "batch_interrupt_received": false, "best_valid_cost": 0.1934679001569748} 
{"images_corr": 0.7173328995704651, "images_baseline_corr": 0.7377091646194458, "headlines_baseline_corr": 0.7128641605377197, "time_train_this_epoch": 12.742827415466309, "valid_cost": 0.1934679001569748, "time_train_total": 113.83094215393066, "valid_corr": 0.4760056734085083, "valid_cost_best_so_far_patience_epochs": 10, "time_read_data_total": 13.022907972335815, "headlines_corr": 0.6250674724578857, "time_read_data_this_epoch": 1.443737506866455, "belief_baseline_corr": 0.6667959094047546, "answers-students_corr": 0.5810787081718445, "cost": 0.11871254444122314, "training_finished": true, "answers-forums_corr": 0.37313252687454224, "answers-forums_baseline_corr": 0.5827670693397522, "train_corr": 0.8224438428878784, "belief_corr": 0.5479462742805481, "valid_cost_best_so_far": true, "answers-students_baseline_corr": 0.7252631783485413} 

 2015-07-09 14:17:13.953080 
{"iterations_done": 0, "resumed_from": null, "epoch_interrupt_received": false, "received_first_batch": false, "epochs_done": 0, "training_started": true, "batch_interrupt_received": false, "epoch_started": true} 
{"images_corr": 0.750315248966217, "images_baseline_corr": 0.7377091646194458, "headlines_baseline_corr": 0.7128641605377197, "valid_cost": 0.12231931835412979, "headlines_corr": 0.6805636286735535, "belief_baseline_corr": 0.6667959094047546, "time_initialization": 3.6075990200042725, "answers-students_corr": 0.6785885095596313, "answers-forums_corr": 0.5101491212844849, "answers-forums_baseline_corr": 0.5827670693397522, "valid_corr": 0.4110639989376068, "belief_corr": 0.5845063328742981, "answers-students_baseline_corr": 0.7252631783485413} 
{"iterations_done": 28, "resumed_from": null, "epoch_interrupt_received": false, "received_first_batch": true, "epochs_done": 1, "epoch_started": false, "training_started": true, "batch_interrupt_received": false, "best_valid_cost": 0.11190340667963028} 
{"images_corr": 0.7892945408821106, "images_baseline_corr": 0.7377091646194458, "headlines_baseline_corr": 0.7128641605377197, "time_train_this_epoch": 11.295662879943848, "valid_cost": 0.11190340667963028, "time_train_total": 11.295662879943848, "valid_corr": 0.5323227047920227, "valid_cost_best_so_far_patience_epochs": 10, "time_read_data_total": 1.4919686317443848, "headlines_corr": 0.7037425637245178, "time_read_data_this_epoch": 1.4919686317443848, "belief_baseline_corr": 0.6667959094047546, "answers-students_corr": 0.6807582378387451, "cost": 0.09547986835241318, "answers-forums_corr": 0.5309444665908813, "answers-forums_baseline_corr": 0.5827670693397522, "train_corr": 0.7438972592353821, "belief_corr": 0.6396516561508179, "valid_cost_best_so_far": true, "answers-students_baseline_corr": 0.7252631783485413} 
{"iterations_done": 56, "resumed_from": null, "epoch_interrupt_received": false, "received_first_batch": true, "epochs_done": 2, "epoch_started": false, "training_started": true, "batch_interrupt_received": false, "best_valid_cost": 0.10771166533231735} 
{"images_corr": 0.7944416999816895, "images_baseline_corr": 0.7377091646194458, "headlines_baseline_corr": 0.7128641605377197, "time_train_this_epoch": 11.417439937591553, "valid_cost": 0.10771166533231735, "time_train_total": 22.7131028175354, "valid_corr": 0.554546058177948, "valid_cost_best_so_far_patience_epochs": 10, "time_read_data_total": 3.031095027923584, "headlines_corr": 0.7099772691726685, "time_read_data_this_epoch": 1.5391263961791992, "belief_baseline_corr": 0.6667959094047546, "answers-students_corr": 0.6801503300666809, "cost": 0.07438774406909943, "answers-forums_corr": 0.5343362092971802, "answers-forums_baseline_corr": 0.5827670693397522, "train_corr": 0.8099351525306702, "belief_corr": 0.6474642157554626, "valid_cost_best_so_far": true, "answers-students_baseline_corr": 0.7252631783485413} 
{"iterations_done": 84, "resumed_from": null, "epoch_interrupt_received": false, "received_first_batch": true, "epochs_done": 3, "epoch_started": false, "training_started": true, "batch_interrupt_received": false, "best_valid_cost": 0.10771166533231735} 
{"images_corr": 0.7956072092056274, "images_baseline_corr": 0.7377091646194458, "headlines_baseline_corr": 0.7128641605377197, "time_train_this_epoch": 11.35750126838684, "valid_cost": 0.10807482153177261, "time_train_total": 34.07060408592224, "valid_corr": 0.5632542967796326, "valid_cost_best_so_far_patience_epochs": 9, "time_read_data_total": 4.543179750442505, "headlines_corr": 0.7133774161338806, "time_read_data_this_epoch": 1.512084722518921, "belief_baseline_corr": 0.6667959094047546, "answers-students_corr": 0.6789495348930359, "cost": 0.0643886849284172, "answers-forums_corr": 0.5382981896400452, "answers-forums_baseline_corr": 0.5827670693397522, "train_corr": 0.8445757031440735, "belief_corr": 0.6518942713737488, "answers-students_baseline_corr": 0.7252631783485413} 
{"iterations_done": 112, "resumed_from": null, "epoch_interrupt_received": false, "received_first_batch": true, "epochs_done": 4, "epoch_started": false, "training_started": true, "batch_interrupt_received": false, "best_valid_cost": 0.10590123385190964} 
{"images_corr": 0.7964988946914673, "images_baseline_corr": 0.7377091646194458, "headlines_baseline_corr": 0.7128641605377197, "time_train_this_epoch": 11.072072505950928, "valid_cost": 0.10590123385190964, "time_train_total": 45.14267659187317, "valid_corr": 0.5673053860664368, "valid_cost_best_so_far_patience_epochs": 10, "time_read_data_total": 5.9677205085754395, "headlines_corr": 0.7158546447753906, "time_read_data_this_epoch": 1.4245407581329346, "belief_baseline_corr": 0.6667959094047546, "answers-students_corr": 0.6783566474914551, "cost": 0.05795552581548691, "answers-forums_corr": 0.5393085479736328, "answers-forums_baseline_corr": 0.5827670693397522, "train_corr": 0.8657230734825134, "belief_corr": 0.6525876522064209, "valid_cost_best_so_far": true, "answers-students_baseline_corr": 0.7252631783485413} 
{"iterations_done": 140, "resumed_from": null, "epoch_interrupt_received": false, "received_first_batch": true, "epochs_done": 5, "epoch_started": false, "training_started": true, "batch_interrupt_received": false, "best_valid_cost": 0.10427644848823547} 
{"images_corr": 0.796858549118042, "images_baseline_corr": 0.7377091646194458, "headlines_baseline_corr": 0.7128641605377197, "time_train_this_epoch": 10.404213428497314, "valid_cost": 0.10427644848823547, "time_train_total": 55.54689002037048, "valid_corr": 0.5711542963981628, "valid_cost_best_so_far_patience_epochs": 10, "time_read_data_total": 7.2916765213012695, "headlines_corr": 0.7170440554618835, "time_read_data_this_epoch": 1.32395601272583, "belief_baseline_corr": 0.6667959094047546, "answers-students_corr": 0.6771776676177979, "cost": 0.053032148629426956, "answers-forums_corr": 0.5379791855812073, "answers-forums_baseline_corr": 0.5827670693397522, "train_corr": 0.8797574043273926, "belief_corr": 0.6517401337623596, "valid_cost_best_so_far": true, "answers-students_baseline_corr": 0.7252631783485413} 
{"iterations_done": 168, "resumed_from": null, "epoch_interrupt_received": false, "received_first_batch": true, "epochs_done": 6, "epoch_started": false, "training_started": true, "batch_interrupt_received": false, "best_valid_cost": 0.10424212366342545} 
{"images_corr": 0.7965185046195984, "images_baseline_corr": 0.7377091646194458, "headlines_baseline_corr": 0.7128641605377197, "time_train_this_epoch": 10.650347471237183, "valid_cost": 0.10424212366342545, "time_train_total": 66.19723749160767, "valid_corr": 0.5717124938964844, "valid_cost_best_so_far_patience_epochs": 10, "time_read_data_total": 8.660075187683105, "headlines_corr": 0.7179646492004395, "time_read_data_this_epoch": 1.368398666381836, "belief_baseline_corr": 0.6667959094047546, "answers-students_corr": 0.6764721274375916, "cost": 0.04920767992734909, "answers-forums_corr": 0.534800112247467, "answers-forums_baseline_corr": 0.5827670693397522, "train_corr": 0.8899471163749695, "belief_corr": 0.6513323783874512, "valid_cost_best_so_far": true, "answers-students_baseline_corr": 0.7252631783485413} 
{"iterations_done": 196, "resumed_from": null, "epoch_interrupt_received": false, "received_first_batch": true, "epochs_done": 7, "epoch_started": false, "training_started": true, "batch_interrupt_received": false, "best_valid_cost": 0.10402921587228775} 
{"images_corr": 0.7967455387115479, "images_baseline_corr": 0.7377091646194458, "headlines_baseline_corr": 0.7128641605377197, "time_train_this_epoch": 10.839041233062744, "valid_cost": 0.10402921587228775, "time_train_total": 77.03627872467041, "valid_corr": 0.5711609721183777, "valid_cost_best_so_far_patience_epochs": 10, "time_read_data_total": 10.016175031661987, "headlines_corr": 0.7192096710205078, "time_read_data_this_epoch": 1.3560998439788818, "belief_baseline_corr": 0.6667959094047546, "answers-students_corr": 0.6746853590011597, "cost": 0.046302430331707, "answers-forums_corr": 0.5324272513389587, "answers-forums_baseline_corr": 0.5827670693397522, "train_corr": 0.8970662951469421, "belief_corr": 0.6502570509910583, "valid_cost_best_so_far": true, "answers-students_baseline_corr": 0.7252631783485413} 
{"iterations_done": 224, "resumed_from": null, "epoch_interrupt_received": false, "received_first_batch": true, "epochs_done": 8, "epoch_started": false, "training_started": true, "batch_interrupt_received": false, "best_valid_cost": 0.10312798619270325} 
{"images_corr": 0.7972916960716248, "images_baseline_corr": 0.7377091646194458, "headlines_baseline_corr": 0.7128641605377197, "time_train_this_epoch": 10.423405885696411, "valid_cost": 0.10312798619270325, "time_train_total": 87.45968461036682, "valid_corr": 0.571524441242218, "valid_cost_best_so_far_patience_epochs": 10, "time_read_data_total": 11.32503056526184, "headlines_corr": 0.7200660705566406, "time_read_data_this_epoch": 1.3088555335998535, "belief_baseline_corr": 0.6667959094047546, "answers-students_corr": 0.6741958856582642, "cost": 0.0438573844730854, "answers-forums_corr": 0.530798614025116, "answers-forums_baseline_corr": 0.5827670693397522, "train_corr": 0.9028916954994202, "belief_corr": 0.648871123790741, "valid_cost_best_so_far": true, "answers-students_baseline_corr": 0.7252631783485413} 
{"iterations_done": 252, "resumed_from": null, "epoch_interrupt_received": false, "received_first_batch": true, "epochs_done": 9, "epoch_started": false, "training_started": true, "batch_interrupt_received": false, "best_valid_cost": 0.10312798619270325} 
{"images_corr": 0.7973760962486267, "images_baseline_corr": 0.7377091646194458, "headlines_baseline_corr": 0.7128641605377197, "time_train_this_epoch": 10.990730285644531, "valid_cost": 0.10390398651361465, "time_train_total": 98.45041489601135, "valid_corr": 0.5711891651153564, "valid_cost_best_so_far_patience_epochs": 9, "time_read_data_total": 12.711756467819214, "headlines_corr": 0.7199364304542542, "time_read_data_this_epoch": 1.386725902557373, "belief_baseline_corr": 0.6667959094047546, "answers-students_corr": 0.6733233332633972, "cost": 0.04178696125745773, "answers-forums_corr": 0.5277419090270996, "answers-forums_baseline_corr": 0.5827670693397522, "train_corr": 0.9073018431663513, "belief_corr": 0.6477473974227905, "answers-students_baseline_corr": 0.7252631783485413} 
{"iterations_done": 280, "resumed_from": null, "epoch_interrupt_received": false, "received_first_batch": true, "epochs_done": 10, "epoch_started": false, "training_started": true, "batch_interrupt_received": false, "best_valid_cost": 0.1031096801161766} 
{"images_corr": 0.7968519330024719, "images_baseline_corr": 0.7377091646194458, "headlines_baseline_corr": 0.7128641605377197, "time_train_this_epoch": 11.196916103363037, "valid_cost": 0.1031096801161766, "time_train_total": 109.64733099937439, "valid_corr": 0.570806086063385, "valid_cost_best_so_far_patience_epochs": 10, "time_read_data_total": 14.201911687850952, "headlines_corr": 0.7210609316825867, "time_read_data_this_epoch": 1.4901552200317383, "belief_baseline_corr": 0.6667959094047546, "answers-students_corr": 0.6720356345176697, "cost": 0.04027562215924263, "answers-forums_corr": 0.5253998637199402, "answers-forums_baseline_corr": 0.5827670693397522, "train_corr": 0.9108943939208984, "belief_corr": 0.645662248134613, "valid_cost_best_so_far": true, "answers-students_baseline_corr": 0.7252631783485413} 
{"iterations_done": 308, "resumed_from": null, "epoch_interrupt_received": false, "received_first_batch": true, "epochs_done": 11, "epoch_started": false, "training_started": true, "batch_interrupt_received": false, "best_valid_cost": 0.1031096801161766} 
{"images_corr": 0.7965844869613647, "images_baseline_corr": 0.7377091646194458, "headlines_baseline_corr": 0.7128641605377197, "time_train_this_epoch": 11.215807914733887, "valid_cost": 0.10379195213317871, "time_train_total": 120.86313891410828, "valid_corr": 0.5700385570526123, "valid_cost_best_so_far_patience_epochs": 9, "time_read_data_total": 15.578177213668823, "headlines_corr": 0.7217797040939331, "time_read_data_this_epoch": 1.376265525817871, "belief_baseline_corr": 0.6667959094047546, "answers-students_corr": 0.6710612773895264, "cost": 0.03829146549105644, "answers-forums_corr": 0.5225444436073303, "answers-forums_baseline_corr": 0.5827670693397522, "train_corr": 0.9139676094055176, "belief_corr": 0.6443677544593811, "answers-students_baseline_corr": 0.7252631783485413} 
{"iterations_done": 336, "resumed_from": null, "epoch_interrupt_received": false, "received_first_batch": true, "epochs_done": 12, "epoch_started": false, "training_started": true, "batch_interrupt_received": false, "best_valid_cost": 0.10294684022665024} 
{"images_corr": 0.7966558933258057, "images_baseline_corr": 0.7377091646194458, "headlines_baseline_corr": 0.7128641605377197, "time_train_this_epoch": 11.093370199203491, "valid_cost": 0.10294684022665024, "time_train_total": 131.95650911331177, "valid_corr": 0.569718599319458, "valid_cost_best_so_far_patience_epochs": 10, "time_read_data_total": 16.953920125961304, "headlines_corr": 0.7221659421920776, "time_read_data_this_epoch": 1.3757429122924805, "belief_baseline_corr": 0.6667959094047546, "answers-students_corr": 0.6704162359237671, "cost": 0.037030842155218124, "answers-forums_corr": 0.522361159324646, "answers-forums_baseline_corr": 0.5827670693397522, "train_corr": 0.9162966012954712, "belief_corr": 0.6426058411598206, "valid_cost_best_so_far": true, "answers-students_baseline_corr": 0.7252631783485413} 
{"iterations_done": 364, "resumed_from": null, "epoch_interrupt_received": false, "received_first_batch": true, "epochs_done": 13, "epoch_started": false, "training_started": true, "batch_interrupt_received": false, "best_valid_cost": 0.10294684022665024} 
{"images_corr": 0.7967987060546875, "images_baseline_corr": 0.7377091646194458, "headlines_baseline_corr": 0.7128641605377197, "time_train_this_epoch": 12.423264741897583, "valid_cost": 0.10371899604797363, "time_train_total": 144.37977385520935, "valid_corr": 0.5681495070457458, "valid_cost_best_so_far_patience_epochs": 9, "time_read_data_total": 18.50017786026001, "headlines_corr": 0.7220903038978577, "time_read_data_this_epoch": 1.546257734298706, "belief_baseline_corr": 0.6667959094047546, "answers-students_corr": 0.6692960858345032, "cost": 0.03589583560824394, "answers-forums_corr": 0.520466685295105, "answers-forums_baseline_corr": 0.5827670693397522, "train_corr": 0.9183741807937622, "belief_corr": 0.6405964493751526, "answers-students_baseline_corr": 0.7252631783485413} 
{"iterations_done": 392, "resumed_from": null, "epoch_interrupt_received": false, "received_first_batch": true, "epochs_done": 14, "epoch_started": false, "training_started": true, "batch_interrupt_received": false, "best_valid_cost": 0.10294684022665024} 
{"images_corr": 0.7968640923500061, "images_baseline_corr": 0.7377091646194458, "headlines_baseline_corr": 0.7128641605377197, "time_train_this_epoch": 11.960135221481323, "valid_cost": 0.10410166531801224, "time_train_total": 156.33990907669067, "valid_corr": 0.5678402185440063, "valid_cost_best_so_far_patience_epochs": 8, "time_read_data_total": 20.02528977394104, "headlines_corr": 0.7222195267677307, "time_read_data_this_epoch": 1.5251119136810303, "belief_baseline_corr": 0.6667959094047546, "answers-students_corr": 0.668260395526886, "cost": 0.03463653847575188, "answers-forums_corr": 0.5187737941741943, "answers-forums_baseline_corr": 0.5827670693397522, "train_corr": 0.9200609922409058, "belief_corr": 0.6391320824623108, "answers-students_baseline_corr": 0.7252631783485413} 
{"iterations_done": 420, "resumed_from": null, "epoch_interrupt_received": false, "received_first_batch": true, "epochs_done": 15, "epoch_started": false, "training_started": true, "batch_interrupt_received": false, "best_valid_cost": 0.10294684022665024} 
{"images_corr": 0.7967264652252197, "images_baseline_corr": 0.7377091646194458, "headlines_baseline_corr": 0.7128641605377197, "time_train_this_epoch": 12.584886074066162, "valid_cost": 0.10395142436027527, "time_train_total": 168.92479515075684, "valid_corr": 0.5663444399833679, "valid_cost_best_so_far_patience_epochs": 7, "time_read_data_total": 21.525326251983643, "headlines_corr": 0.7219811677932739, "time_read_data_this_epoch": 1.5000364780426025, "belief_baseline_corr": 0.6667959094047546, "answers-students_corr": 0.6667550206184387, "cost": 0.033864717930555344, "answers-forums_corr": 0.5183961391448975, "answers-forums_baseline_corr": 0.5827670693397522, "train_corr": 0.921593189239502, "belief_corr": 0.6379422545433044, "answers-students_baseline_corr": 0.7252631783485413} 
{"iterations_done": 448, "resumed_from": null, "epoch_interrupt_received": false, "received_first_batch": true, "epochs_done": 16, "epoch_started": false, "training_started": true, "batch_interrupt_received": false, "best_valid_cost": 0.10294684022665024} 
{"images_corr": 0.7965798377990723, "images_baseline_corr": 0.7377091646194458, "headlines_baseline_corr": 0.7128641605377197, "time_train_this_epoch": 12.440014123916626, "valid_cost": 0.10408405214548111, "time_train_total": 181.36480927467346, "valid_corr": 0.5647716522216797, "valid_cost_best_so_far_patience_epochs": 6, "time_read_data_total": 23.05717396736145, "headlines_corr": 0.7221759557723999, "time_read_data_this_epoch": 1.5318477153778076, "belief_baseline_corr": 0.6667959094047546, "answers-students_corr": 0.6659032702445984, "cost": 0.03277459368109703, "answers-forums_corr": 0.5152589082717896, "answers-forums_baseline_corr": 0.5827670693397522, "train_corr": 0.9228460192680359, "belief_corr": 0.6360856294631958, "answers-students_baseline_corr": 0.7252631783485413} 
{"iterations_done": 476, "resumed_from": null, "epoch_interrupt_received": false, "received_first_batch": true, "epochs_done": 17, "epoch_started": false, "training_started": true, "batch_interrupt_received": false, "best_valid_cost": 0.10294684022665024} 
{"images_corr": 0.7963498830795288, "images_baseline_corr": 0.7377091646194458, "headlines_baseline_corr": 0.7128641605377197, "time_train_this_epoch": 16.44737982749939, "valid_cost": 0.104119211435318, "time_train_total": 197.81218910217285, "valid_corr": 0.5636911392211914, "valid_cost_best_so_far_patience_epochs": 5, "time_read_data_total": 25.373554229736328, "headlines_corr": 0.7222666144371033, "time_read_data_this_epoch": 2.316380262374878, "belief_baseline_corr": 0.6667959094047546, "answers-students_corr": 0.6644659638404846, "cost": 0.03190399333834648, "answers-forums_corr": 0.5144996047019958, "answers-forums_baseline_corr": 0.5827670693397522, "train_corr": 0.9240493774414062, "belief_corr": 0.6350869536399841, "answers-students_baseline_corr": 0.7252631783485413} 
{"iterations_done": 504, "resumed_from": null, "epoch_interrupt_received": false, "received_first_batch": true, "epochs_done": 18, "epoch_started": false, "training_started": true, "batch_interrupt_received": false, "best_valid_cost": 0.10294684022665024} 
{"images_corr": 0.7959825396537781, "images_baseline_corr": 0.7377091646194458, "headlines_baseline_corr": 0.7128641605377197, "time_train_this_epoch": 12.180086612701416, "valid_cost": 0.10498055815696716, "time_train_total": 209.99227571487427, "valid_corr": 0.5618064403533936, "valid_cost_best_so_far_patience_epochs": 4, "time_read_data_total": 26.972829580307007, "headlines_corr": 0.7221493721008301, "time_read_data_this_epoch": 1.5992753505706787, "belief_baseline_corr": 0.6667959094047546, "answers-students_corr": 0.6641680002212524, "cost": 0.031161164864897728, "answers-forums_corr": 0.5129669308662415, "answers-forums_baseline_corr": 0.5827670693397522, "train_corr": 0.925070583820343, "belief_corr": 0.6346437931060791, "answers-students_baseline_corr": 0.7252631783485413} 
{"iterations_done": 532, "resumed_from": null, "epoch_interrupt_received": false, "received_first_batch": true, "epochs_done": 19, "epoch_started": false, "training_started": true, "batch_interrupt_received": false, "best_valid_cost": 0.10294684022665024} 
{"images_corr": 0.7959062457084656, "images_baseline_corr": 0.7377091646194458, "headlines_baseline_corr": 0.7128641605377197, "time_train_this_epoch": 13.028716087341309, "valid_cost": 0.1044621542096138, "time_train_total": 223.02099180221558, "valid_corr": 0.5612449645996094, "valid_cost_best_so_far_patience_epochs": 3, "time_read_data_total": 28.58343005180359, "headlines_corr": 0.7221212387084961, "time_read_data_this_epoch": 1.610600471496582, "belief_baseline_corr": 0.6667959094047546, "answers-students_corr": 0.6629611253738403, "cost": 0.030648380517959595, "answers-forums_corr": 0.5113097429275513, "answers-forums_baseline_corr": 0.5827670693397522, "train_corr": 0.9259694218635559, "belief_corr": 0.6329135298728943, "answers-students_baseline_corr": 0.7252631783485413} 
{"iterations_done": 560, "resumed_from": null, "epoch_interrupt_received": false, "received_first_batch": true, "epochs_done": 20, "epoch_started": false, "training_started": true, "batch_interrupt_received": false, "best_valid_cost": 0.10250068455934525} 
{"images_corr": 0.7955780029296875, "images_baseline_corr": 0.7377091646194458, "headlines_baseline_corr": 0.7128641605377197, "time_train_this_epoch": 13.232051134109497, "valid_cost": 0.10250068455934525, "time_train_total": 236.25304293632507, "valid_corr": 0.5597508549690247, "valid_cost_best_so_far_patience_epochs": 10, "time_read_data_total": 30.231446981430054, "headlines_corr": 0.7223005890846252, "time_read_data_this_epoch": 1.6480169296264648, "belief_baseline_corr": 0.6667959094047546, "answers-students_corr": 0.6620438098907471, "cost": 0.029884153977036476, "answers-forums_corr": 0.5099803805351257, "answers-forums_baseline_corr": 0.5827670693397522, "train_corr": 0.9267478585243225, "belief_corr": 0.6321946382522583, "valid_cost_best_so_far": true, "answers-students_baseline_corr": 0.7252631783485413} 
{"iterations_done": 588, "resumed_from": null, "epoch_interrupt_received": false, "received_first_batch": true, "epochs_done": 21, "epoch_started": false, "training_started": true, "batch_interrupt_received": false, "best_valid_cost": 0.10250068455934525} 
{"images_corr": 0.7956365346908569, "images_baseline_corr": 0.7377091646194458, "headlines_baseline_corr": 0.7128641605377197, "time_train_this_epoch": 16.0631582736969, "valid_cost": 0.1042238250374794, "time_train_total": 252.31620121002197, "valid_corr": 0.5586351156234741, "valid_cost_best_so_far_patience_epochs": 9, "time_read_data_total": 32.30058693885803, "headlines_corr": 0.7220352292060852, "time_read_data_this_epoch": 2.0691399574279785, "belief_baseline_corr": 0.6667959094047546, "answers-students_corr": 0.6610583662986755, "cost": 0.029181689023971558, "answers-forums_corr": 0.508643627166748, "answers-forums_baseline_corr": 0.5827670693397522, "train_corr": 0.9274096488952637, "belief_corr": 0.63179612159729, "answers-students_baseline_corr": 0.7252631783485413} 
{"iterations_done": 616, "resumed_from": null, "epoch_interrupt_received": false, "received_first_batch": true, "epochs_done": 22, "epoch_started": false, "training_started": true, "batch_interrupt_received": false, "best_valid_cost": 0.10250068455934525} 
{"images_corr": 0.7954203486442566, "images_baseline_corr": 0.7377091646194458, "headlines_baseline_corr": 0.7128641605377197, "time_train_this_epoch": 11.97351861000061, "valid_cost": 0.10323937982320786, "time_train_total": 264.2897198200226, "valid_corr": 0.5574471354484558, "valid_cost_best_so_far_patience_epochs": 8, "time_read_data_total": 33.8583927154541, "headlines_corr": 0.7220638394355774, "time_read_data_this_epoch": 1.5578057765960693, "belief_baseline_corr": 0.6667959094047546, "answers-students_corr": 0.6605743765830994, "cost": 0.028646882623434067, "answers-forums_corr": 0.5058370232582092, "answers-forums_baseline_corr": 0.5827670693397522, "train_corr": 0.9278482794761658, "belief_corr": 0.6305004358291626, "answers-students_baseline_corr": 0.7252631783485413} 
{"iterations_done": 644, "resumed_from": null, "epoch_interrupt_received": false, "received_first_batch": true, "epochs_done": 23, "epoch_started": false, "training_started": true, "batch_interrupt_received": false, "best_valid_cost": 0.10250068455934525} 
{"images_corr": 0.7953696846961975, "images_baseline_corr": 0.7377091646194458, "headlines_baseline_corr": 0.7128641605377197, "time_train_this_epoch": 11.91148853302002, "valid_cost": 0.10351967811584473, "time_train_total": 276.2012083530426, "valid_corr": 0.556620180606842, "valid_cost_best_so_far_patience_epochs": 7, "time_read_data_total": 35.34859490394592, "headlines_corr": 0.7222189903259277, "time_read_data_this_epoch": 1.4902021884918213, "belief_baseline_corr": 0.6667959094047546, "answers-students_corr": 0.6594608426094055, "cost": 0.02809169702231884, "answers-forums_corr": 0.5037429928779602, "answers-forums_baseline_corr": 0.5827670693397522, "train_corr": 0.9284247756004333, "belief_corr": 0.6299827694892883, "answers-students_baseline_corr": 0.7252631783485413} 
{"iterations_done": 672, "resumed_from": null, "epoch_interrupt_received": false, "received_first_batch": true, "epochs_done": 24, "epoch_started": false, "training_started": true, "batch_interrupt_received": false, "best_valid_cost": 0.10250068455934525} 
{"images_corr": 0.7953179478645325, "images_baseline_corr": 0.7377091646194458, "headlines_baseline_corr": 0.7128641605377197, "time_train_this_epoch": 12.187865972518921, "valid_cost": 0.10386329144239426, "time_train_total": 288.3890743255615, "valid_corr": 0.5558208227157593, "valid_cost_best_so_far_patience_epochs": 6, "time_read_data_total": 36.84011435508728, "headlines_corr": 0.7221066355705261, "time_read_data_this_epoch": 1.4915194511413574, "belief_baseline_corr": 0.6667959094047546, "answers-students_corr": 0.6582387089729309, "cost": 0.02767040953040123, "answers-forums_corr": 0.5021775960922241, "answers-forums_baseline_corr": 0.5827670693397522, "train_corr": 0.9289015531539917, "belief_corr": 0.6297568082809448, "answers-students_baseline_corr": 0.7252631783485413} 
{"iterations_done": 700, "resumed_from": null, "epoch_interrupt_received": false, "received_first_batch": true, "epochs_done": 25, "epoch_started": false, "training_started": true, "batch_interrupt_received": false, "best_valid_cost": 0.10250068455934525} 
{"images_corr": 0.795107364654541, "images_baseline_corr": 0.7377091646194458, "headlines_baseline_corr": 0.7128641605377197, "time_train_this_epoch": 16.321876049041748, "valid_cost": 0.10357990115880966, "time_train_total": 304.71095037460327, "valid_corr": 0.5561630725860596, "valid_cost_best_so_far_patience_epochs": 5, "time_read_data_total": 39.03534770011902, "headlines_corr": 0.7217156887054443, "time_read_data_this_epoch": 2.1952333450317383, "belief_baseline_corr": 0.6667959094047546, "answers-students_corr": 0.6579001545906067, "cost": 0.02716156840324402, "answers-forums_corr": 0.5012327432632446, "answers-forums_baseline_corr": 0.5827670693397522, "train_corr": 0.9291983246803284, "belief_corr": 0.628566324710846, "answers-students_baseline_corr": 0.7252631783485413} 
{"iterations_done": 728, "resumed_from": null, "epoch_interrupt_received": false, "received_first_batch": true, "epochs_done": 26, "epoch_started": false, "training_started": true, "batch_interrupt_received": false, "best_valid_cost": 0.10250068455934525} 
{"images_corr": 0.7947741746902466, "images_baseline_corr": 0.7377091646194458, "headlines_baseline_corr": 0.7128641605377197, "time_train_this_epoch": 12.488325119018555, "valid_cost": 0.10381200164556503, "time_train_total": 317.1992754936218, "valid_corr": 0.5557861924171448, "valid_cost_best_so_far_patience_epochs": 4, "time_read_data_total": 40.62587594985962, "headlines_corr": 0.7217620611190796, "time_read_data_this_epoch": 1.5905282497406006, "belief_baseline_corr": 0.6667959094047546, "answers-students_corr": 0.6570093631744385, "cost": 0.026711206883192062, "answers-forums_corr": 0.5003064274787903, "answers-forums_baseline_corr": 0.5827670693397522, "train_corr": 0.929602324962616, "belief_corr": 0.627356767654419, "answers-students_baseline_corr": 0.7252631783485413} 
{"iterations_done": 756, "resumed_from": null, "epoch_interrupt_received": false, "received_first_batch": true, "epochs_done": 27, "epoch_started": false, "training_started": true, "batch_interrupt_received": false, "best_valid_cost": 0.10250068455934525} 
{"images_corr": 0.794685423374176, "images_baseline_corr": 0.7377091646194458, "headlines_baseline_corr": 0.7128641605377197, "time_train_this_epoch": 12.528558254241943, "valid_cost": 0.10428091883659363, "time_train_total": 329.72783374786377, "valid_corr": 0.5546503663063049, "valid_cost_best_so_far_patience_epochs": 3, "time_read_data_total": 42.25414729118347, "headlines_corr": 0.7213757634162903, "time_read_data_this_epoch": 1.6282713413238525, "belief_baseline_corr": 0.6667959094047546, "answers-students_corr": 0.656319797039032, "cost": 0.026348397135734558, "answers-forums_corr": 0.4989212155342102, "answers-forums_baseline_corr": 0.5827670693397522, "train_corr": 0.9297946095466614, "belief_corr": 0.6263256669044495, "answers-students_baseline_corr": 0.7252631783485413} 
{"iterations_done": 784, "resumed_from": null, "epoch_interrupt_received": false, "received_first_batch": true, "epochs_done": 28, "epoch_started": false, "training_started": true, "batch_interrupt_received": false, "best_valid_cost": 0.10250068455934525} 
{"images_corr": 0.7944943308830261, "images_baseline_corr": 0.7377091646194458, "headlines_baseline_corr": 0.7128641605377197, "time_train_this_epoch": 12.632188320159912, "valid_cost": 0.10392493009567261, "time_train_total": 342.3600220680237, "valid_corr": 0.5531152486801147, "valid_cost_best_so_far_patience_epochs": 2, "time_read_data_total": 43.866971254348755, "headlines_corr": 0.7210136651992798, "time_read_data_this_epoch": 1.6128239631652832, "belief_baseline_corr": 0.6667959094047546, "answers-students_corr": 0.6553593873977661, "cost": 0.025859598070383072, "answers-forums_corr": 0.4972954988479614, "answers-forums_baseline_corr": 0.5827670693397522, "train_corr": 0.9301067590713501, "belief_corr": 0.6254667639732361, "answers-students_baseline_corr": 0.7252631783485413} 
{"iterations_done": 812, "resumed_from": null, "epoch_interrupt_received": false, "received_first_batch": true, "epochs_done": 29, "epoch_started": false, "training_started": true, "batch_interrupt_received": false, "best_valid_cost": 0.10250068455934525} 
{"images_corr": 0.7942469120025635, "images_baseline_corr": 0.7377091646194458, "headlines_baseline_corr": 0.7128641605377197, "time_train_this_epoch": 15.447070121765137, "valid_cost": 0.10382243245840073, "time_train_total": 357.8070921897888, "valid_corr": 0.5521862506866455, "valid_cost_best_so_far_patience_epochs": 1, "time_read_data_total": 45.89463758468628, "headlines_corr": 0.7205876708030701, "time_read_data_this_epoch": 2.0276663303375244, "belief_baseline_corr": 0.6667959094047546, "answers-students_corr": 0.6547033190727234, "cost": 0.025575920939445496, "answers-forums_corr": 0.4964265525341034, "answers-forums_baseline_corr": 0.5827670693397522, "train_corr": 0.9302517175674438, "belief_corr": 0.624690055847168, "answers-students_baseline_corr": 0.7252631783485413} 
{"iterations_done": 840, "resumed_from": null, "epoch_interrupt_received": false, "received_first_batch": true, "epochs_done": 30, "epoch_started": false, "training_started": true, "batch_interrupt_received": false, "best_valid_cost": 0.10250068455934525} 
{"images_corr": 0.7941377758979797, "images_baseline_corr": 0.7377091646194458, "headlines_baseline_corr": 0.7128641605377197, "time_train_this_epoch": 12.838909149169922, "valid_cost": 0.10304224491119385, "time_train_total": 370.64600133895874, "valid_corr": 0.5510210990905762, "valid_cost_best_so_far_patience_epochs": 0, "time_read_data_total": 47.583571672439575, "headlines_corr": 0.7205684185028076, "time_read_data_this_epoch": 1.688934087753296, "belief_baseline_corr": 0.6667959094047546, "answers-students_corr": 0.6537534594535828, "cost": 0.025098560377955437, "answers-forums_corr": 0.49441200494766235, "answers-forums_baseline_corr": 0.5827670693397522, "train_corr": 0.9304158091545105, "belief_corr": 0.6235498785972595, "training_finish_requested": true, "answers-students_baseline_corr": 0.7252631783485413} 
{"iterations_done": 840, "resumed_from": null, "epoch_interrupt_received": false, "received_first_batch": true, "epochs_done": 30, "epoch_started": false, "training_started": true, "batch_interrupt_received": false, "best_valid_cost": 0.10250068455934525} 
{"images_corr": 0.7941377758979797, "images_baseline_corr": 0.7377091646194458, "headlines_baseline_corr": 0.7128641605377197, "time_train_this_epoch": 12.838909149169922, "valid_cost": 0.10304224491119385, "time_train_total": 370.64600133895874, "valid_corr": 0.5510210990905762, "valid_cost_best_so_far_patience_epochs": 0, "time_read_data_total": 47.583571672439575, "headlines_corr": 0.7205684185028076, "time_read_data_this_epoch": 1.688934087753296, "belief_baseline_corr": 0.6667959094047546, "answers-students_corr": 0.6537534594535828, "cost": 0.025098560377955437, "training_finished": true, "answers-forums_corr": 0.49441200494766235, "answers-forums_baseline_corr": 0.5827670693397522, "train_corr": 0.9304158091545105, "belief_corr": 0.6235498785972595, "training_finish_requested": true, "answers-students_baseline_corr": 0.7252631783485413} 
