
 2015-09-21 10:42:35.177963 
{"iterations_done": 0, "resumed_from": null, "epoch_interrupt_received": false, "received_first_batch": false, "epochs_done": 0, "training_started": true, "batch_interrupt_received": false, "epoch_started": true} 
{"images_corr": 0.031648291771342034, "images_baseline_corr": 0.7377092234628764, "headlines_baseline_corr": 0.7128641967453653, "valid_cost": 0.3305699780830998, "headlines_corr": 0.04756221413981384, "belief_baseline_corr": 0.6667958959691305, "time_initialization": 0.716378927230835, "answers-students_corr": 0.05702503330444003, "answers-forums_corr": -0.08273455308011282, "answers-forums_baseline_corr": 0.5827670732209513, "valid_corr": NaN, "belief_corr": 0.13672441937369884, "valid_baseline_corr": 0.4708388815810841, "answers-students_baseline_corr": 0.7252632235547202} 

 2015-09-21 10:45:33.371259 
{"iterations_done": 0, "resumed_from": null, "epoch_interrupt_received": false, "received_first_batch": false, "epochs_done": 0, "training_started": true, "batch_interrupt_received": false, "epoch_started": true} 
{"images_corr": 0.018075685886062225, "images_baseline_corr": 0.7377092234628764, "headlines_baseline_corr": 0.7128641967453653, "valid_cost": 0.3359240274305966, "headlines_corr": -0.02126820819944128, "belief_baseline_corr": 0.6667958959691305, "time_initialization": 0.6750969886779785, "answers-students_corr": 0.07678320535607425, "answers-forums_corr": -0.03286837671878841, "answers-forums_baseline_corr": 0.5827670732209513, "valid_corr": NaN, "belief_corr": 0.1469006976686627, "valid_baseline_corr": 0.4708388815810841, "answers-students_baseline_corr": 0.7252632235547202} 
{"iterations_done": 1, "resumed_from": null, "epoch_interrupt_received": false, "received_first_batch": true, "epochs_done": 1, "epoch_started": false, "training_started": true, "batch_interrupt_received": false, "best_valid_cost": 0.2974847547572353} 
{"images_corr": 0.02958992804913049, "images_baseline_corr": 0.7377092234628764, "headlines_baseline_corr": 0.7128641967453653, "time_train_this_epoch": 0.23713898658752441, "valid_cost": 0.2974847547572353, "time_train_total": 0.23713898658752441, "valid_corr": -0.005803805758554388, "time_read_data_total": 0.0005021095275878906, "headlines_corr": 0.050181654986782946, "time_read_data_this_epoch": 0.0005021095275878906, "belief_baseline_corr": 0.6667958959691305, "answers-students_corr": 0.02581861035435891, "cost": 0.30775479896159696, "answers-forums_corr": 0.006513259691349176, "answers-forums_baseline_corr": 0.5827670732209513, "train_corr": NaN, "belief_corr": 0.11414165967981205, "valid_cost_best_so_far": true, "valid_baseline_corr": 0.4708388815810841, "answers-students_baseline_corr": 0.7252632235547202} 
{"iterations_done": 2, "resumed_from": null, "epoch_interrupt_received": false, "received_first_batch": true, "epochs_done": 2, "epoch_started": false, "training_started": true, "batch_interrupt_received": false, "best_valid_cost": 0.2974847547572353} 
{"images_corr": 0.08357642264360682, "images_baseline_corr": 0.7377092234628764, "headlines_baseline_corr": 0.7128641967453653, "time_train_this_epoch": 0.24748802185058594, "valid_cost": 0.3281188318906146, "time_train_total": 0.48462700843811035, "valid_corr": -0.009514446499446478, "time_read_data_total": 0.0010182857513427734, "headlines_corr": 0.09238770104064252, "time_read_data_this_epoch": 0.0005161762237548828, "belief_baseline_corr": 0.6667958959691305, "answers-students_corr": 0.02856032434296902, "cost": 0.16862493965494293, "answers-forums_corr": -0.07677554370031467, "answers-forums_baseline_corr": 0.5827670732209513, "train_corr": NaN, "belief_corr": 0.09136634101631408, "valid_baseline_corr": 0.4708388815810841, "answers-students_baseline_corr": 0.7252632235547202} 
{"iterations_done": 3, "resumed_from": null, "epoch_interrupt_received": false, "received_first_batch": true, "epochs_done": 3, "epoch_started": false, "training_started": true, "batch_interrupt_received": false, "best_valid_cost": 0.2974847547572353} 
{"images_corr": 0.07250797872816159, "images_baseline_corr": 0.7377092234628764, "headlines_baseline_corr": 0.7128641967453653, "time_train_this_epoch": 0.24644804000854492, "valid_cost": 0.2984589153374337, "time_train_total": 0.7310750484466553, "valid_corr": NaN, "time_read_data_total": 0.0015683174133300781, "headlines_corr": 0.008828037852496366, "time_read_data_this_epoch": 0.0005500316619873047, "belief_baseline_corr": 0.6667958959691305, "answers-students_corr": 0.07778652599869541, "cost": 0.1698079452981429, "answers-forums_corr": 0.036317322242601695, "answers-forums_baseline_corr": 0.5827670732209513, "train_corr": NaN, "belief_corr": 0.0679329865006227, "valid_baseline_corr": 0.4708388815810841, "answers-students_baseline_corr": 0.7252632235547202} 
{"iterations_done": 4, "resumed_from": null, "epoch_interrupt_received": false, "received_first_batch": true, "epochs_done": 4, "epoch_started": false, "training_started": true, "batch_interrupt_received": false, "best_valid_cost": 0.2974847547572353} 
{"images_corr": -0.0019686187731854147, "images_baseline_corr": 0.7377092234628764, "headlines_baseline_corr": 0.7128641967453653, "time_train_this_epoch": 0.2414989471435547, "valid_cost": 0.31244865275504735, "time_train_total": 0.97257399559021, "valid_corr": -0.007098891937979697, "time_read_data_total": 0.0021092891693115234, "headlines_corr": 0.02497557299822077, "time_read_data_this_epoch": 0.0005409717559814453, "belief_baseline_corr": 0.6667958959691305, "answers-students_corr": -0.029602293554724754, "cost": 0.16534730544370022, "answers-forums_corr": 0.03176894136809786, "answers-forums_baseline_corr": 0.5827670732209513, "train_corr": NaN, "belief_corr": 0.09649452487988794, "valid_baseline_corr": 0.4708388815810841, "answers-students_baseline_corr": 0.7252632235547202} 
{"iterations_done": 5, "resumed_from": null, "epoch_interrupt_received": false, "received_first_batch": true, "epochs_done": 5, "epoch_started": false, "training_started": true, "batch_interrupt_received": false, "best_valid_cost": 0.2974847547572353} 
{"images_corr": 0.03603378035815212, "images_baseline_corr": 0.7377092234628764, "headlines_baseline_corr": 0.7128641967453653, "time_train_this_epoch": 0.23662900924682617, "valid_cost": 0.30984944954210797, "time_train_total": 1.2092030048370361, "valid_corr": -0.008270810129110922, "time_read_data_total": 0.0026090145111083984, "headlines_corr": 0.015495118230993352, "time_read_data_this_epoch": 0.000499725341796875, "belief_baseline_corr": 0.6667958959691305, "answers-students_corr": -0.013876410773584395, "cost": 0.15839954088545305, "answers-forums_corr": 0.006970212690744383, "answers-forums_baseline_corr": 0.5827670732209513, "train_corr": NaN, "belief_corr": 0.08669255918245956, "valid_baseline_corr": 0.4708388815810841, "answers-students_baseline_corr": 0.7252632235547202} 
{"iterations_done": 6, "resumed_from": null, "epoch_interrupt_received": false, "received_first_batch": true, "epochs_done": 6, "epoch_started": false, "training_started": true, "batch_interrupt_received": false, "best_valid_cost": 0.2974847547572353} 
{"images_corr": 0.03889104854814195, "images_baseline_corr": 0.7377092234628764, "headlines_baseline_corr": 0.7128641967453653, "time_train_this_epoch": 0.2328319549560547, "valid_cost": 0.3113506941085004, "time_train_total": 1.4420349597930908, "valid_corr": -0.006563109515300097, "time_read_data_total": 0.003111124038696289, "headlines_corr": 0.0335021024946306, "time_read_data_this_epoch": 0.0005021095275878906, "belief_baseline_corr": 0.6667958959691305, "answers-students_corr": 0.009644070520240529, "cost": 0.1581404794707269, "answers-forums_corr": -0.06288685993598755, "answers-forums_baseline_corr": 0.5827670732209513, "train_corr": NaN, "belief_corr": 0.050296063711330455, "valid_baseline_corr": 0.4708388815810841, "answers-students_baseline_corr": 0.7252632235547202} 
{"iterations_done": 7, "resumed_from": null, "epoch_interrupt_received": false, "received_first_batch": true, "epochs_done": 7, "epoch_started": false, "training_started": true, "batch_interrupt_received": false, "best_valid_cost": 0.2974847547572353} 
{"images_corr": 0.02056946684663982, "images_baseline_corr": 0.7377092234628764, "headlines_baseline_corr": 0.7128641967453653, "time_train_this_epoch": 0.2302231788635254, "valid_cost": 0.31100612205401323, "time_train_total": 1.6722581386566162, "valid_corr": -0.0066290607183098855, "time_read_data_total": 0.003606081008911133, "headlines_corr": 0.009618466464028046, "time_read_data_this_epoch": 0.0004949569702148438, "belief_baseline_corr": 0.6667958959691305, "answers-students_corr": 0.059642356765558006, "cost": 0.15808979269069753, "answers-forums_corr": -0.029058886116342424, "answers-forums_baseline_corr": 0.5827670732209513, "train_corr": NaN, "belief_corr": 0.10172463020406186, "valid_baseline_corr": 0.4708388815810841, "answers-students_baseline_corr": 0.7252632235547202} 
{"iterations_done": 8, "resumed_from": null, "epoch_interrupt_received": false, "received_first_batch": true, "epochs_done": 8, "epoch_started": false, "training_started": true, "batch_interrupt_received": false, "best_valid_cost": 0.2974847547572353} 
{"images_corr": -0.014639929877677777, "images_baseline_corr": 0.7377092234628764, "headlines_baseline_corr": 0.7128641967453653, "time_train_this_epoch": 0.22748494148254395, "valid_cost": 0.31124521782636116, "time_train_total": 1.8997430801391602, "valid_corr": -0.009687496650006526, "time_read_data_total": 0.004117012023925781, "headlines_corr": -0.013971092605731292, "time_read_data_this_epoch": 0.0005109310150146484, "belief_baseline_corr": 0.6667958959691305, "answers-students_corr": 0.00782790334877028, "cost": 0.15808170264067806, "answers-forums_corr": -0.029013303528635494, "answers-forums_baseline_corr": 0.5827670732209513, "train_corr": NaN, "belief_corr": 0.13514599489386037, "valid_baseline_corr": 0.4708388815810841, "answers-students_baseline_corr": 0.7252632235547202} 
{"iterations_done": 9, "resumed_from": null, "epoch_interrupt_received": true, "received_first_batch": true, "epochs_done": 9, "epoch_started": false, "training_started": true, "batch_interrupt_received": false, "best_valid_cost": 0.2974847547572353} 
{"images_corr": 0.01147224877695833, "images_baseline_corr": 0.7377092234628764, "epoch_interrupt_received": true, "time_train_this_epoch": 0.2642970085144043, "valid_cost": 0.31120048287762286, "time_train_total": 2.1640400886535645, "headlines_baseline_corr": 0.7128641967453653, "time_read_data_total": 0.0046100616455078125, "headlines_corr": 0.016177304021797654, "time_read_data_this_epoch": 0.0004930496215820312, "belief_baseline_corr": 0.6667958959691305, "answers-students_corr": 0.02473177692848668, "cost": 0.15808029377211516, "answers-forums_corr": 0.012893342971599409, "answers-forums_baseline_corr": 0.5827670732209513, "train_corr": NaN, "belief_corr": 0.11173279999840725, "valid_corr": -0.005441945412263584, "valid_baseline_corr": 0.4708388815810841, "answers-students_baseline_corr": 0.7252632235547202} 
{"iterations_done": 9, "resumed_from": null, "epoch_interrupt_received": true, "received_first_batch": true, "epochs_done": 9, "epoch_started": false, "training_started": true, "batch_interrupt_received": false, "best_valid_cost": 0.2974847547572353} 
{"images_corr": 0.01147224877695833, "images_baseline_corr": 0.7377092234628764, "epoch_interrupt_received": true, "time_train_this_epoch": 0.2642970085144043, "valid_cost": 0.31120048287762286, "time_train_total": 2.1640400886535645, "headlines_baseline_corr": 0.7128641967453653, "time_read_data_total": 0.0046100616455078125, "headlines_corr": 0.016177304021797654, "time_read_data_this_epoch": 0.0004930496215820312, "belief_baseline_corr": 0.6667958959691305, "answers-students_corr": 0.02473177692848668, "cost": 0.15808029377211516, "training_finished": true, "answers-forums_corr": 0.012893342971599409, "answers-forums_baseline_corr": 0.5827670732209513, "train_corr": NaN, "belief_corr": 0.11173279999840725, "valid_corr": -0.005441945412263584, "valid_baseline_corr": 0.4708388815810841, "answers-students_baseline_corr": 0.7252632235547202} 

 2015-09-21 10:52:18.770308 
{"iterations_done": 0, "resumed_from": null, "epoch_interrupt_received": false, "received_first_batch": false, "epochs_done": 0, "training_started": true, "batch_interrupt_received": false, "epoch_started": true} 
{"images_corr": 0.048608549245142366, "images_baseline_corr": 0.7377092234628764, "headlines_baseline_corr": 0.7128641967453653, "valid_cost": 0.14160882092789032, "headlines_corr": -0.02041564191621687, "belief_baseline_corr": 0.6667958959691305, "time_initialization": 1.4826469421386719, "answers-students_corr": 0.05295659389177871, "answers-forums_corr": 0.020222626467414562, "answers-forums_baseline_corr": 0.5827670732209513, "valid_corr": NaN, "belief_corr": -0.1404483851656539, "valid_baseline_corr": 0.4708388815810841, "answers-students_baseline_corr": 0.7252632235547202} 
{"iterations_done": 1907, "resumed_from": null, "epoch_interrupt_received": false, "received_first_batch": true, "epochs_done": 1, "epoch_started": false, "training_started": true, "batch_interrupt_received": false, "best_valid_cost": 0.1253091097350719} 
{"images_corr": 0.023200454466932585, "images_baseline_corr": 0.7377092234628764, "headlines_baseline_corr": 0.7128641967453653, "time_train_this_epoch": 318.2855625152588, "valid_cost": 0.1253091097350719, "time_train_total": 318.2855625152588, "valid_corr": 0.003564843716394019, "time_read_data_total": 0.7896754741668701, "headlines_corr": 0.005896568461989603, "time_read_data_this_epoch": 0.7896754741668701, "belief_baseline_corr": 0.6667958959691305, "answers-students_corr": 0.008018696946168925, "cost": 0.12087024192297886, "answers-forums_corr": 0.016190121565399847, "answers-forums_baseline_corr": 0.5827670732209513, "train_corr": NaN, "belief_corr": -0.1148466445763129, "valid_cost_best_so_far": true, "valid_baseline_corr": 0.4708388815810841, "answers-students_baseline_corr": 0.7252632235547202} 
{"iterations_done": 3814, "resumed_from": null, "epoch_interrupt_received": false, "received_first_batch": true, "epochs_done": 2, "epoch_started": false, "training_started": true, "batch_interrupt_received": false, "best_valid_cost": 0.1253091097350719} 
{"images_corr": 0.08238896944532596, "images_baseline_corr": 0.7377092234628764, "headlines_baseline_corr": 0.7128641967453653, "time_train_this_epoch": 322.36504197120667, "valid_cost": 0.1265069648933542, "time_train_total": 640.6506044864655, "valid_corr": 2.8078340912293717e-05, "time_read_data_total": 1.577850103378296, "headlines_corr": 0.003974934670665707, "time_read_data_this_epoch": 0.7881746292114258, "belief_baseline_corr": 0.6667958959691305, "answers-students_corr": 0.10631915880702124, "cost": 0.10833760698762519, "answers-forums_corr": 0.031026103843385642, "answers-forums_baseline_corr": 0.5827670732209513, "train_corr": NaN, "belief_corr": -0.052769365693912315, "valid_baseline_corr": 0.4708388815810841, "answers-students_baseline_corr": 0.7252632235547202} 
{"iterations_done": 5721, "resumed_from": null, "epoch_interrupt_received": false, "received_first_batch": true, "epochs_done": 3, "epoch_started": false, "training_started": true, "batch_interrupt_received": false, "best_valid_cost": 0.1253091097350719} 
{"images_corr": 0.1101755269964587, "images_baseline_corr": 0.7377092234628764, "headlines_baseline_corr": 0.7128641967453653, "time_train_this_epoch": 321.76446628570557, "valid_cost": 0.12707884293553806, "time_train_total": 962.415070772171, "valid_corr": NaN, "time_read_data_total": 2.3564345836639404, "headlines_corr": 0.02871892326431274, "time_read_data_this_epoch": 0.7785844802856445, "belief_baseline_corr": 0.6667958959691305, "answers-students_corr": 0.024871194037619285, "cost": 0.10167225973103988, "answers-forums_corr": 0.05284001377171059, "answers-forums_baseline_corr": 0.5827670732209513, "train_corr": NaN, "belief_corr": -0.09115660443242174, "valid_baseline_corr": 0.4708388815810841, "answers-students_baseline_corr": 0.7252632235547202} 
{"iterations_done": 7628, "resumed_from": null, "epoch_interrupt_received": false, "received_first_batch": true, "epochs_done": 4, "epoch_started": false, "training_started": true, "batch_interrupt_received": false, "best_valid_cost": 0.1253091097350719} 
{"images_corr": 0.07995307164066599, "images_baseline_corr": 0.7377092234628764, "headlines_baseline_corr": 0.7128641967453653, "time_train_this_epoch": 335.82951068878174, "valid_cost": 0.12748621767772117, "time_train_total": 1298.2445814609528, "valid_corr": NaN, "time_read_data_total": 3.189389705657959, "headlines_corr": 0.010095240744294399, "time_read_data_this_epoch": 0.8329551219940186, "belief_baseline_corr": 0.6667958959691305, "answers-students_corr": 0.07575906423496777, "cost": 0.0970029557076919, "answers-forums_corr": -0.04413996346233946, "answers-forums_baseline_corr": 0.5827670732209513, "train_corr": NaN, "belief_corr": -0.08364917712531046, "valid_baseline_corr": 0.4708388815810841, "answers-students_baseline_corr": 0.7252632235547202} 
{"iterations_done": 9535, "resumed_from": null, "epoch_interrupt_received": false, "received_first_batch": true, "epochs_done": 5, "epoch_started": false, "training_started": true, "batch_interrupt_received": false, "best_valid_cost": 0.1253091097350719} 
{"images_corr": 0.10015349818495917, "images_baseline_corr": 0.7377092234628764, "headlines_baseline_corr": 0.7128641967453653, "time_train_this_epoch": 321.1499853134155, "valid_cost": 0.12768335349189902, "time_train_total": 1619.3945667743683, "valid_corr": NaN, "time_read_data_total": 3.9677493572235107, "headlines_corr": 0.02405973006806645, "time_read_data_this_epoch": 0.7783596515655518, "belief_baseline_corr": 0.6667958959691305, "answers-students_corr": 0.058549377253202216, "cost": 0.09366657941569882, "answers-forums_corr": -0.009731653794441623, "answers-forums_baseline_corr": 0.5827670732209513, "train_corr": NaN, "belief_corr": -0.07178451936847, "valid_baseline_corr": 0.4708388815810841, "answers-students_baseline_corr": 0.7252632235547202} 
{"iterations_done": 11442, "resumed_from": null, "epoch_interrupt_received": false, "received_first_batch": true, "epochs_done": 6, "epoch_started": false, "training_started": true, "batch_interrupt_received": false, "best_valid_cost": 0.1253091097350719} 
{"images_corr": 0.08480660239443391, "images_baseline_corr": 0.7377092234628764, "headlines_baseline_corr": 0.7128641967453653, "time_train_this_epoch": 321.7708389759064, "valid_cost": 0.12791527931048108, "time_train_total": 1941.1654057502747, "valid_corr": -1.5234104060774124e-05, "time_read_data_total": 4.746441602706909, "headlines_corr": 0.12872904246542677, "time_read_data_this_epoch": 0.7786922454833984, "belief_baseline_corr": 0.6667958959691305, "answers-students_corr": -0.043504820793187925, "cost": 0.09108526242135512, "answers-forums_corr": -0.00595145668354166, "answers-forums_baseline_corr": 0.5827670732209513, "train_corr": NaN, "belief_corr": -0.07833465584056892, "valid_baseline_corr": 0.4708388815810841, "answers-students_baseline_corr": 0.7252632235547202} 
{"iterations_done": 13349, "resumed_from": null, "epoch_interrupt_received": false, "received_first_batch": true, "epochs_done": 7, "epoch_started": false, "training_started": true, "batch_interrupt_received": false, "best_valid_cost": 0.1253091097350719} 
{"images_corr": 0.10357815366679174, "images_baseline_corr": 0.7377092234628764, "headlines_baseline_corr": 0.7128641967453653, "time_train_this_epoch": 322.95627450942993, "valid_cost": 0.12811712270573994, "time_train_total": 2264.1216802597046, "valid_corr": NaN, "time_read_data_total": 5.548099040985107, "headlines_corr": 0.10834258220764657, "time_read_data_this_epoch": 0.8016574382781982, "belief_baseline_corr": 0.6667958959691305, "answers-students_corr": -0.0005829388235943719, "cost": 0.08899222711215994, "answers-forums_corr": -0.05806045197997255, "answers-forums_baseline_corr": 0.5827670732209513, "train_corr": NaN, "belief_corr": -0.04899796875683477, "valid_baseline_corr": 0.4708388815810841, "answers-students_baseline_corr": 0.7252632235547202} 
{"iterations_done": 15256, "resumed_from": null, "epoch_interrupt_received": false, "received_first_batch": true, "epochs_done": 8, "epoch_started": false, "training_started": true, "batch_interrupt_received": false, "best_valid_cost": 0.1253091097350719} 
{"images_corr": 0.0984538479875172, "images_baseline_corr": 0.7377092234628764, "headlines_baseline_corr": 0.7128641967453653, "time_train_this_epoch": 320.8780312538147, "valid_cost": 0.1281811256999267, "time_train_total": 2584.9997115135193, "valid_corr": 0.003208499587907628, "time_read_data_total": 6.324292182922363, "headlines_corr": 0.12983777885257536, "time_read_data_this_epoch": 0.7761931419372559, "belief_baseline_corr": 0.6667958959691305, "answers-students_corr": -0.017813835535172136, "cost": 0.08725165438734733, "answers-forums_corr": -0.017217881677952216, "answers-forums_baseline_corr": 0.5827670732209513, "train_corr": NaN, "belief_corr": -0.02780148393406512, "valid_baseline_corr": 0.4708388815810841, "answers-students_baseline_corr": 0.7252632235547202} 
{"iterations_done": 17163, "resumed_from": null, "epoch_interrupt_received": false, "received_first_batch": true, "epochs_done": 9, "epoch_started": false, "training_started": true, "batch_interrupt_received": false, "best_valid_cost": 0.1253091097350719} 
{"images_corr": 0.08079494789333738, "images_baseline_corr": 0.7377092234628764, "headlines_baseline_corr": 0.7128641967453653, "time_train_this_epoch": 321.51907086372375, "valid_cost": 0.12830089448980003, "time_train_total": 2906.518782377243, "valid_corr": NaN, "time_read_data_total": 7.101586818695068, "headlines_corr": 0.14747656073286217, "time_read_data_this_epoch": 0.7772946357727051, "belief_baseline_corr": 0.6667958959691305, "answers-students_corr": -0.014094857607491408, "cost": 0.08575178963883533, "answers-forums_corr": 0.05578411403344615, "answers-forums_baseline_corr": 0.5827670732209513, "train_corr": NaN, "belief_corr": -0.04031492129134612, "valid_baseline_corr": 0.4708388815810841, "answers-students_baseline_corr": 0.7252632235547202} 

 2015-09-22 12:46:59.688443 
{"iterations_done": 0, "resumed_from": null, "epoch_interrupt_received": false, "received_first_batch": false, "epochs_done": 0, "training_started": true, "batch_interrupt_received": false, "epoch_started": true} 
{"images_corr": 0.054437115200173865, "valid_cost": 0.1438327655230261, "headlines_corr": 0.005320629295540893, "time_initialization": 0.7894229888916016, "answers-students_corr": 0.04834247866299411, "answers-forums_corr": 0.017137499373664114, "valid_corr": 0.016555287960495352, "belief_corr": -0.10982920739861145} 

 2015-09-27 07:23:01.080086 
{"iterations_done": 0, "resumed_from": null, "epoch_interrupt_received": false, "received_first_batch": false, "epochs_done": 0, "training_started": true, "batch_interrupt_received": false, "epoch_started": true} 
{"images_corr": 0.07273537477811173, "valid_cost": 0.14010651042307615, "headlines_corr": 0.027671140111156612, "time_initialization": 5.379964828491211, "answers-students_corr": 0.029157984007095742, "answers-forums_corr": 0.008857364630040663, "valid_corr": 0.016353094371686097, "belief_corr": -0.16319472810621816} 
