Arguments: 
Namespace(batch_size=32, char_cnn_filter_lengths=[1, 2, 3, 5, 7, 9], char_cnn_filters=[50, 50, 50, 50, 50], char_embeddings_dim=2, dataset_root='/Users/theses/Developer/sts-experiments/experiments/../data/semeval-sts/all', disable_progress_bar=False, embeddings_dim=300, epochs_max=20, epochs_patience_valid=5, glove_embeddings=None, hash_embeddings_dim=2000, lemmatize=False, lower_case=True, name='word2vecfix', number_of_oov=5, patience_metric='cost', remove_lookup=True, remove_stopwords=True, stem=False, test_files=['2015.test.tsv'], train=['2015.train.tsv'], type_oov='emb-fix', use_tokenizer=True, valid='2015.val.tsv', vocab_len=-1, w2v_embeddings='/Users/theses/THESIS/PROGRAM/DATA/word2vec/vectors.txt')
Running on Peters-MBP
vocab also from train files
STATISTICS /Users/theses/Developer/sts-experiments/experiments/../data/semeval-sts/all/2015.train.tsv
Total words: 39773
Total distinct words: 7115
STATISTICS /Users/theses/Developer/sts-experiments/experiments/../data/semeval-sts/all/2015.test.tsv
Total words: 134618
Total distinct words: 12593
STATISTICS /Users/theses/Developer/sts-experiments/experiments/../data/semeval-sts/all/2015.train.tsv
Total words: 39773
Total distinct words: 7115
0 OOV in /Users/theses/Developer/sts-experiments/experiments/../data/semeval-sts/all/2015.train.tsv
STATISTICS /Users/theses/Developer/sts-experiments/experiments/../data/semeval-sts/all/2015.val.tsv
Total words: 13540
Total distinct words: 3674
1 OOV in /Users/theses/Developer/sts-experiments/experiments/../data/semeval-sts/all/2015.val.tsv
STATISTICS /Users/theses/Developer/sts-experiments/experiments/../data/semeval-sts/all/2015.test.tsv
Total words: 94845
Total distinct words: 12593
1 OOV in /Users/theses/Developer/sts-experiments/experiments/../data/semeval-sts/all/2015.test.tsv
Loading precomputed embeddings ...
Embeddings loaded.
Computing std of parent vectors ...
std=0.0576995
Words initialized from parent: 10337
Words initialized randomly: 2260
Vocab size 12597
Parameters: 
	emb_lin.W (300, 300).size=90000
Trained parameters count: 90000

-------------------------------------------------------------------------------
BEFORE FIRST EPOCH
-------------------------------------------------------------------------------
Training status:
	 batch_interrupt_received: False
	 epoch_interrupt_received: False
	 epoch_started: True
	 epochs_done: 0
	 iterations_done: 0
	 received_first_batch: False
	 resumed_from: None
	 training_started: True
Log records from the iteration 0:
	 2015.test.tsv_cor_accuracy: 0.266962962963
	 2015.test.tsv_correlation: -0.617887556553
	 time_initialization: 6.91002106667
	 valid_cor_accuracy: 0.377333333333
	 valid_correlation: -0.660941839218


-------------------------------------------------------------------------------
AFTER ANOTHER EPOCH
-------------------------------------------------------------------------------
Training status:
	 batch_interrupt_received: False
	 epoch_interrupt_received: False
	 epoch_started: False
	 epochs_done: 1
	 iterations_done: 94
	 received_first_batch: True
	 resumed_from: None
	 training_started: True
Log records from the iteration 94:
	 2015.test.tsv_cor_accuracy: 0.272740740741
	 2015.test.tsv_correlation: -0.725897550583
	 cor_accuracy: 0.254986702128
	 correlation: -0.655368924141
	 time_read_data_this_epoch: 0.14515376091
	 time_read_data_total: 0.14515376091
	 time_train_this_epoch: 1.05692362785
	 time_train_total: 1.05692362785
	 valid_cor_accuracy: 0.392
	 valid_correlation: -0.570355474949


-------------------------------------------------------------------------------
AFTER ANOTHER EPOCH
-------------------------------------------------------------------------------
Training status:
	 batch_interrupt_received: False
	 best_valid_correlation: -0.570355474949
	 epoch_interrupt_received: False
	 epoch_started: False
	 epochs_done: 2
	 iterations_done: 188
	 received_first_batch: True
	 resumed_from: None
	 training_started: True
Log records from the iteration 188:
	 2015.test.tsv_cor_accuracy: 0.305333333333
	 2015.test.tsv_correlation: -0.76524323225
	 cor_accuracy: 0.292442375887
	 correlation: -0.821606993675
	 time_read_data_this_epoch: 0.14337348938
	 time_read_data_total: 0.28852725029
	 time_train_this_epoch: 1.02116370201
	 time_train_total: 2.07808732986
	 valid_cor_accuracy: 0.392
	 valid_correlation: -0.599720418453


-------------------------------------------------------------------------------
AFTER ANOTHER EPOCH
-------------------------------------------------------------------------------
Training status:
	 batch_interrupt_received: False
	 best_valid_correlation: -0.599720418453
	 epoch_interrupt_received: False
	 epoch_started: False
	 epochs_done: 3
	 iterations_done: 282
	 received_first_batch: True
	 resumed_from: None
	 training_started: True
Log records from the iteration 282:
	 2015.test.tsv_cor_accuracy: 0.292740740741
	 2015.test.tsv_correlation: -0.759198784828
	 cor_accuracy: 0.304521276596
	 correlation: -0.86854493618
	 time_read_data_this_epoch: 0.141240596771
	 time_read_data_total: 0.429767847061
	 time_train_this_epoch: 1.02121424675
	 time_train_total: 3.09930157661
	 valid_cor_accuracy: 0.376
	 valid_correlation: -0.563982069492


-------------------------------------------------------------------------------
AFTER ANOTHER EPOCH
-------------------------------------------------------------------------------
Training status:
	 batch_interrupt_received: False
	 best_valid_correlation: -0.599720418453
	 epoch_interrupt_received: False
	 epoch_started: False
	 epochs_done: 4
	 iterations_done: 376
	 received_first_batch: True
	 resumed_from: None
	 training_started: True
Log records from the iteration 376:
	 2015.test.tsv_cor_accuracy: 0.337777777778
	 2015.test.tsv_correlation: -0.775308966637
	 cor_accuracy: 0.324135638298
	 correlation: -0.89972192049
	 time_read_data_this_epoch: 0.145164489746
	 time_read_data_total: 0.574932336807
	 time_train_this_epoch: 1.0442481041
	 time_train_total: 4.14354968071
	 valid_cor_accuracy: 0.372
	 valid_correlation: -0.577917635441


-------------------------------------------------------------------------------
AFTER ANOTHER EPOCH
-------------------------------------------------------------------------------
Training status:
	 batch_interrupt_received: False
	 best_valid_correlation: -0.599720418453
	 epoch_interrupt_received: False
	 epoch_started: False
	 epochs_done: 5
	 iterations_done: 470
	 received_first_batch: True
	 resumed_from: None
	 training_started: True
Log records from the iteration 470:
	 2015.test.tsv_cor_accuracy: 0.317037037037
	 2015.test.tsv_correlation: -0.793744444847
	 cor_accuracy: 0.340536347518
	 correlation: -0.9146733284
	 time_read_data_this_epoch: 0.153196334839
	 time_read_data_total: 0.728128671646
	 time_train_this_epoch: 1.13110613823
	 time_train_total: 5.27465581894
	 valid_cor_accuracy: 0.377333333333
	 valid_correlation: -0.588543057442


-------------------------------------------------------------------------------
AFTER ANOTHER EPOCH
-------------------------------------------------------------------------------
Training status:
	 batch_interrupt_received: False
	 best_valid_correlation: -0.599720418453
	 epoch_interrupt_received: False
	 epoch_started: False
	 epochs_done: 6
	 iterations_done: 564
	 received_first_batch: True
	 resumed_from: None
	 training_started: True
Log records from the iteration 564:
	 2015.test.tsv_cor_accuracy: 0.293037037037
	 2015.test.tsv_correlation: -0.782880842686
	 cor_accuracy: 0.346520390071
	 correlation: -0.932798802853
	 time_read_data_this_epoch: 0.140889644623
	 time_read_data_total: 0.869018316269
	 time_train_this_epoch: 1.01480746269
	 time_train_total: 6.28946328163
	 valid_cor_accuracy: 0.389333333333
	 valid_correlation: -0.58896201849


-------------------------------------------------------------------------------
AFTER ANOTHER EPOCH
-------------------------------------------------------------------------------
Training status:
	 batch_interrupt_received: False
	 best_valid_correlation: -0.599720418453
	 epoch_interrupt_received: False
	 epoch_started: False
	 epochs_done: 7
	 iterations_done: 658
	 received_first_batch: True
	 resumed_from: None
	 training_started: True
Log records from the iteration 658:
	 2015.test.tsv_cor_accuracy: 0.329333333333
	 2015.test.tsv_correlation: -0.805817484856
	 cor_accuracy: 0.344858156028
	 correlation: -0.941562235355
	 time_read_data_this_epoch: 0.152167081833
	 time_read_data_total: 1.0211853981
	 time_train_this_epoch: 1.10816574097
	 time_train_total: 7.3976290226
	 valid_cor_accuracy: 0.366666666667
	 valid_correlation: -0.60480350256


-------------------------------------------------------------------------------
AFTER ANOTHER EPOCH
-------------------------------------------------------------------------------
Training status:
	 batch_interrupt_received: False
	 best_valid_correlation: -0.60480350256
	 epoch_interrupt_received: False
	 epoch_started: False
	 epochs_done: 8
	 iterations_done: 752
	 received_first_batch: True
	 resumed_from: None
	 training_started: True
Log records from the iteration 752:
	 2015.test.tsv_cor_accuracy: 0.367259259259
	 2015.test.tsv_correlation: -0.812049210072
	 cor_accuracy: 0.354720744681
	 correlation: -0.948197305202
	 time_read_data_this_epoch: 0.146204948425
	 time_read_data_total: 1.16739034653
	 time_train_this_epoch: 1.06771087646
	 time_train_total: 8.46533989906
	 valid_cor_accuracy: 0.384
	 valid_correlation: -0.618967473507


-------------------------------------------------------------------------------
AFTER ANOTHER EPOCH
-------------------------------------------------------------------------------
Training status:
	 batch_interrupt_received: False
	 best_valid_correlation: -0.618967473507
	 epoch_interrupt_received: False
	 epoch_started: False
	 epochs_done: 9
	 iterations_done: 846
	 received_first_batch: True
	 resumed_from: None
	 training_started: True
Log records from the iteration 846:
	 2015.test.tsv_cor_accuracy: 0.348296296296
	 2015.test.tsv_correlation: -0.802333593369
	 cor_accuracy: 0.364250886525
	 correlation: -0.955093085766
	 time_read_data_this_epoch: 0.140342473984
	 time_read_data_total: 1.30773282051
	 time_train_this_epoch: 1.0429956913
	 time_train_total: 9.50833559036
	 valid_cor_accuracy: 0.381333333333
	 valid_correlation: -0.606702268124


-------------------------------------------------------------------------------
AFTER ANOTHER EPOCH
-------------------------------------------------------------------------------
Training status:
	 batch_interrupt_received: False
	 best_valid_correlation: -0.618967473507
	 epoch_interrupt_received: False
	 epoch_started: False
	 epochs_done: 10
	 iterations_done: 940
	 received_first_batch: True
	 resumed_from: None
	 training_started: True
Log records from the iteration 940:
	 2015.test.tsv_cor_accuracy: 0.338518518519
	 2015.test.tsv_correlation: -0.805544912815
	 cor_accuracy: 0.38552748227
	 correlation: -0.961667656898
	 time_read_data_this_epoch: 0.14538693428
	 time_read_data_total: 1.45311975479
	 time_train_this_epoch: 1.05719923973
	 time_train_total: 10.5655348301
	 valid_cor_accuracy: 0.378666666667
	 valid_correlation: -0.603261053562


-------------------------------------------------------------------------------
AFTER ANOTHER EPOCH
-------------------------------------------------------------------------------
Training status:
	 batch_interrupt_received: False
	 best_valid_correlation: -0.618967473507
	 epoch_interrupt_received: False
	 epoch_started: False
	 epochs_done: 11
	 iterations_done: 1034
	 received_first_batch: True
	 resumed_from: None
	 training_started: True
Log records from the iteration 1034:
	 2015.test.tsv_cor_accuracy: 0.349185185185
	 2015.test.tsv_correlation: -0.810565114021
	 cor_accuracy: 0.390514184397
	 correlation: -0.964441597462
	 time_read_data_this_epoch: 0.145439386368
	 time_read_data_total: 1.59855914116
	 time_train_this_epoch: 1.07930636406
	 time_train_total: 11.6448411942
	 valid_cor_accuracy: 0.368
	 valid_correlation: -0.615150094032


-------------------------------------------------------------------------------
AFTER ANOTHER EPOCH
-------------------------------------------------------------------------------
Training status:
	 batch_interrupt_received: False
	 best_valid_correlation: -0.618967473507
	 epoch_interrupt_received: False
	 epoch_started: False
	 epochs_done: 12
	 iterations_done: 1128
	 received_first_batch: True
	 resumed_from: None
	 training_started: True
Log records from the iteration 1128:
	 2015.test.tsv_cor_accuracy: 0.35362962963
	 2015.test.tsv_correlation: -0.814058184624
	 cor_accuracy: 0.39572251773
	 correlation: -0.968027532101
	 time_read_data_this_epoch: 0.150058269501
	 time_read_data_total: 1.74861741066
	 time_train_this_epoch: 1.11241602898
	 time_train_total: 12.7572572231
	 valid_cor_accuracy: 0.368
	 valid_correlation: -0.617088615894


-------------------------------------------------------------------------------
AFTER ANOTHER EPOCH
-------------------------------------------------------------------------------
Training status:
	 batch_interrupt_received: False
	 best_valid_correlation: -0.618967473507
	 epoch_interrupt_received: False
	 epoch_started: False
	 epochs_done: 13
	 iterations_done: 1222
	 received_first_batch: True
	 resumed_from: None
	 training_started: True
Log records from the iteration 1222:
	 2015.test.tsv_cor_accuracy: 0.362962962963
	 2015.test.tsv_correlation: -0.813171088696
	 cor_accuracy: 0.413120567376
	 correlation: -0.967737495899
	 time_read_data_this_epoch: 0.147367715836
	 time_read_data_total: 1.8959851265
	 time_train_this_epoch: 1.08587169647
	 time_train_total: 13.8431289196
	 valid_cor_accuracy: 0.370666666667
	 valid_correlation: -0.620545387268


-------------------------------------------------------------------------------
AFTER ANOTHER EPOCH
-------------------------------------------------------------------------------
Training status:
	 batch_interrupt_received: False
	 best_valid_correlation: -0.620545387268
	 epoch_interrupt_received: False
	 epoch_started: False
	 epochs_done: 14
	 iterations_done: 1316
	 received_first_batch: True
	 resumed_from: None
	 training_started: True
Log records from the iteration 1316:
	 2015.test.tsv_cor_accuracy: 0.356296296296
	 2015.test.tsv_correlation: -0.810185849667
	 cor_accuracy: 0.421653368794
	 correlation: -0.971452832222
	 time_read_data_this_epoch: 0.140387535095
	 time_read_data_total: 2.03637266159
	 time_train_this_epoch: 1.04399824142
	 time_train_total: 14.887127161
	 valid_cor_accuracy: 0.368
	 valid_correlation: -0.620619118214


-------------------------------------------------------------------------------
AFTER ANOTHER EPOCH
-------------------------------------------------------------------------------
Training status:
	 batch_interrupt_received: False
	 best_valid_correlation: -0.620619118214
	 epoch_interrupt_received: False
	 epoch_started: False
	 epochs_done: 15
	 iterations_done: 1410
	 received_first_batch: True
	 resumed_from: None
	 training_started: True
Log records from the iteration 1410:
	 2015.test.tsv_cor_accuracy: 0.387111111111
	 2015.test.tsv_correlation: -0.821606993675
	 cor_accuracy: 0.421764184397
	 correlation: -0.973054587841
	 time_read_data_this_epoch: 0.15234708786
	 time_read_data_total: 2.18871974945
	 time_train_this_epoch: 1.09063744545
	 time_train_total: 15.9777646065
	 valid_cor_accuracy: 0.354666666667
	 valid_correlation: -0.625441908836


-------------------------------------------------------------------------------
AFTER ANOTHER EPOCH
-------------------------------------------------------------------------------
Training status:
	 batch_interrupt_received: False
	 best_valid_correlation: -0.625441908836
	 epoch_interrupt_received: False
	 epoch_started: False
	 epochs_done: 16
	 iterations_done: 1504
	 received_first_batch: True
	 resumed_from: None
	 training_started: True
Log records from the iteration 1504:
	 2015.test.tsv_cor_accuracy: 0.360592592593
	 2015.test.tsv_correlation: -0.813846766949
	 cor_accuracy: 0.433843085106
	 correlation: -0.972957015038
	 time_read_data_this_epoch: 0.149632453918
	 time_read_data_total: 2.33835220337
	 time_train_this_epoch: 1.09181547165
	 time_train_total: 17.0695800781
	 valid_cor_accuracy: 0.362666666667
	 valid_correlation: -0.614418566227


-------------------------------------------------------------------------------
AFTER ANOTHER EPOCH
-------------------------------------------------------------------------------
Training status:
	 batch_interrupt_received: False
	 best_valid_correlation: -0.625441908836
	 epoch_interrupt_received: False
	 epoch_started: False
	 epochs_done: 17
	 iterations_done: 1598
	 received_first_batch: True
	 resumed_from: None
	 training_started: True
Log records from the iteration 1598:
	 2015.test.tsv_cor_accuracy: 0.378518518519
	 2015.test.tsv_correlation: -0.818896591663
	 cor_accuracy: 0.433399822695
	 correlation: -0.975154161453
	 time_read_data_this_epoch: 0.146951675415
	 time_read_data_total: 2.48530387878
	 time_train_this_epoch: 1.07619190216
	 time_train_total: 18.1457719803
	 valid_cor_accuracy: 0.352
	 valid_correlation: -0.623477339745


-------------------------------------------------------------------------------
AFTER ANOTHER EPOCH
-------------------------------------------------------------------------------
Training status:
	 batch_interrupt_received: False
	 best_valid_correlation: -0.625441908836
	 epoch_interrupt_received: False
	 epoch_started: False
	 epochs_done: 18
	 iterations_done: 1692
	 received_first_batch: True
	 resumed_from: None
	 training_started: True
Log records from the iteration 1692:
	 2015.test.tsv_cor_accuracy: 0.374222222222
	 2015.test.tsv_correlation: -0.817620992661
	 cor_accuracy: 0.44259751773
	 correlation: -0.978095948696
	 time_read_data_this_epoch: 0.147794485092
	 time_read_data_total: 2.63309836388
	 time_train_this_epoch: 1.08167481422
	 time_train_total: 19.2274467945
	 valid_cor_accuracy: 0.352
	 valid_correlation: -0.628285825253


-------------------------------------------------------------------------------
AFTER ANOTHER EPOCH
-------------------------------------------------------------------------------
Training status:
	 batch_interrupt_received: False
	 best_valid_correlation: -0.628285825253
	 epoch_interrupt_received: False
	 epoch_started: False
	 epochs_done: 19
	 iterations_done: 1786
	 received_first_batch: True
	 resumed_from: None
	 training_started: True
Log records from the iteration 1786:
	 2015.test.tsv_cor_accuracy: 0.375407407407
	 2015.test.tsv_correlation: -0.81502187252
	 cor_accuracy: 0.434729609929
	 correlation: -0.978437542915
	 time_read_data_this_epoch: 0.147815465927
	 time_read_data_total: 2.7809138298
	 time_train_this_epoch: 1.04205799103
	 time_train_total: 20.2695047855
	 valid_cor_accuracy: 0.352
	 valid_correlation: -0.620874345303


-------------------------------------------------------------------------------
AFTER ANOTHER EPOCH
-------------------------------------------------------------------------------
Training status:
	 batch_interrupt_received: False
	 best_valid_correlation: -0.628285825253
	 epoch_interrupt_received: False
	 epoch_started: False
	 epochs_done: 20
	 iterations_done: 1880
	 received_first_batch: True
	 resumed_from: None
	 training_started: True
Log records from the iteration 1880:
	 2015.test.tsv_cor_accuracy: 0.377481481481
	 2015.test.tsv_correlation: -0.817045331001
	 cor_accuracy: 0.450022163121
	 correlation: -0.980192065239
	 time_read_data_this_epoch: 0.150086164474
	 time_read_data_total: 2.93099999428
	 time_train_this_epoch: 1.08551907539
	 time_train_total: 21.3550238609
	 training_finish_requested: True
	 valid_cor_accuracy: 0.353333333333
	 valid_correlation: -0.627366483212


-------------------------------------------------------------------------------
TRAINING HAS BEEN FINISHED:
-------------------------------------------------------------------------------
Training status:
	 batch_interrupt_received: False
	 best_valid_correlation: -0.628285825253
	 epoch_interrupt_received: False
	 epoch_started: False
	 epochs_done: 20
	 iterations_done: 1880
	 received_first_batch: True
	 resumed_from: None
	 training_started: True
Log records from the iteration 1880:
	 2015.test.tsv_cor_accuracy: 0.377481481481
	 2015.test.tsv_correlation: -0.817045331001
	 cor_accuracy: 0.450022163121
	 correlation: -0.980192065239
	 time_read_data_this_epoch: 0.150086164474
	 time_read_data_total: 2.93099999428
	 time_train_this_epoch: 1.08551907539
	 time_train_total: 21.3550238609
	 training_finish_requested: True
	 training_finished: True
	 valid_cor_accuracy: 0.353333333333
	 valid_correlation: -0.627366483212
	 valid_correlation_best_so_far_patience_epochs: 3

